2020-09-21 10:47:18,949 - pymkews.worker.data_storage - INFO - Opened file in job: job.json
2020-09-21 10:47:18,950 - pymkews.worker.mkeccv10 - INFO - Executing job ...
2020-09-21 10:47:19,003 - pymkews.worker.mkeccv10 - INFO - Loading template: /usr/local/lib/python3.8/dist-packages/pymkecc/data/templates/vcsel_mkedet02_sensor.json
2020-09-21 10:47:19,075 - pymkews.worker.mkeccv10 - INFO - Instantiating template
2020-09-21 10:47:30,028 - pymkews.worker.mkeccv10 - INFO - done
2020-09-21 10:47:30,056 - pymkews.worker.data_storage - INFO - Added file to job: results.json
