{
  "type": "mkecc",
  "version": "1.0",
  "dataset_id": 114,
  "params": {
    "template": "vcsel_mkedet02_sensor",
    "macros": {
      "LASER_TARGET_GAMMA": 0.4,
      "MAX_DEPTH": 2040
    }
  }
}